<svg width="24" height="24" viewBox="0 0 24 24" fill="none" xmlns="http://www.w3.org/2000/svg">
<g clip-path="url(#clip0_3_6)">
<path fill-rule="evenodd" clip-rule="evenodd" d="M0 0H24V24H0L4.71243 24C4.31489 19.936 6.65342 17.005 11.1762 14.9784C12.5473 14.5794 15.5324 13.1552 15.9001 12C16.7005 10.0233 16.3918 8.66121 15.3241 7.71963C14.3531 7.23382 13.2233 6.90599 10.8305 7.83484C9.11797 8.70155 8.46526 9.99851 8.34182 11.5103C7.98345 15.587 4.74186 17.7232 0 18.8497V0ZM21.4652 4.7009C21.4652 5.92266 20.4515 6.9131 19.2012 6.9131C17.9508 6.9131 16.9371 5.92266 16.9371 4.7009C16.9371 3.47914 17.9508 2.48871 19.2012 2.48871C20.4515 2.48871 21.4652 3.47914 21.4652 4.7009Z" fill="#7FD9D9"/>
</g>
<defs>
<clipPath id="clip0_3_6">
<rect width="24" height="24" rx="5" fill="white"/>
</clipPath>
</defs>
</svg>
